<OAI-PMH xmlns="http://www.openarchives.org/OAI/2.0/" xmlns:xsi="http://www.w3.org/2001/XMLSchema-instance" xsi:schemaLocation="http://www.openarchives.org/OAI/2.0/ http://www.openarchives.org/OAI/2.0/OAI-PMH.xsd"><responseDate>2024-09-05T09:28:07Z</responseDate><request verb="ListRecords" metadataPrefix="oai_dc">https://dataverse.harvard.edu/oai</request><ListRecords><record><header><identifier>doi:10.7910/DVN/00234</identifier><datestamp>2022-10-21T06:04:22Z</datestamp><setSpec>IQSS</setSpec></header><metadata><oai_dc:dc xmlns:xsi="http://www.w3.org/2001/XMLSchema-instance" xmlns:oai_dc="http://www.openarchives.org/OAI/2.0/oai_dc/" xmlns:dc="http://purl.org/dc/elements/1.1/" xsi:schemaLocation="http://www.openarchives.org/OAI/2.0/oai_dc/ http://www.openarchives.org/OAI/2.0/oai_dc.xsd"><dc:title>Replication data for: Spillovers from High-Skill Consumption to Low-Skill Labor Markets</dc:title><dc:identifier>https://doi.org/10.7910/DVN/00234</dc:identifier><dc:creator>Mazzolari, Francesca</dc:creator><dc:creator>Ragusa, Giuseppe</dc:creator><dc:publisher>Harvard Dataverse</dc:publisher><dc:description>N/A</dc:description></oai_dc:dc></metadata></record><record><header><identifier>doi:10.7910/DVN/002RTI</identifier><datestamp>2024-04-25T06:46:29Z</datestamp><setSpec>IQSS</setSpec></header><metadata><oai_dc:dc xmlns:xsi="http://www.w3.org/2001/XMLSchema-instance" xmlns:oai_dc="http://www.openarchives.org/OAI/2.0/oai_dc/" xmlns:dc="http://purl.org/dc/elements/1.1/" xsi:schemaLocation="http://www.openarchives.org/OAI/2.0/oai_dc/ http://www.openarchives.org/OAI/2.0/oai_dc.xsd"><dc:title>Encuesta de tejido social en el Distrito Metropolitano de Quito</dc:title><dc:identifier>https://doi.org/10.7910/DVN/002RTI</dc:identifier><dc:creator>Velasco-Oña, Pablo</dc:creator><dc:creator>Revelo, Jefferson</dc:creator><dc:publisher>Harvard Dataverse</dc:publisher><dc:description>Datos de línea base sobre el tejido social en Quito medido a través de la confianza en las instituciones, la participación y la identificación con estas. Datos producidos por el Instituto de Investigaciones de la Ciudad en colaboración con Perfiles de Opinión. Levantamiento aleatorio en hogar representativo a nivel distrital y de administraciones zonales (2023).</dc:description><dc:subject>Social Sciences</dc:subject><dc:language>Spanish, Castilian</dc:language><dc:date>2024-04-23</dc:date><dc:contributor>DMQ, Instituto de Investigaciones de la Ciudad</dc:contributor><dc:contributor>Perfiles de Opinión</dc:contributor><dc:contributor>Urgilés, Andrea</dc:contributor><dc:contributor>Cueva, Daniela</dc:contributor></oai_dc:dc></metadata></record><record><header status="deleted"><identifier>doi:10.7910/DVN/0049230</identifier><datestamp>2019-08-21T06:34:23Z</datestamp><setSpec>World_Agroforestry_ICRAF</setSpec><setSpec>IQSS</setSpec></header></record><record><header><identifier>doi:10.7910/DVN/004HG6</identifier><datestamp>2022-03-26T06:05:52Z</datestamp><setSpec>IQSS</setSpec><setSpec>geospatial_metadata_harvard</setSpec></header><metadata><oai_dc:dc xmlns:xsi="http://www.w3.org/2001/XMLSchema-instance" xmlns:oai_dc="http://www.openarchives.org/OAI/2.0/oai_dc/" xmlns:dc="http://purl.org/dc/elements/1.1/" xsi:schemaLocation="http://www.openarchives.org/OAI/2.0/oai_dc/ http://www.openarchives.org/OAI/2.0/oai_dc.xsd"><dc:title>A12_21127.JPG</dc:title><dc:identifier>https://doi.org/10.7910/DVN/004HG6</dc:identifier><dc:creator>Master, Daniel M.</dc:creator><dc:creator>Stager, Lawrence E.</dc:creator><dc:publisher>Harvard Dataverse</dc:publisher><dc:description>Link to OCHRE database: &lt;a href = ''http://pi.lib.uchicago.edu/1001/org/ochre/8d679c5b-a9e8-4fe8-a73d-d45c1e04f4fc'>http://pi.lib.uchicago.edu/1001/org/ochre/8d679c5b-a9e8-4fe8-a73d-d45c1e04f4fc</dc:description><dc:subject>Arts and Humanities</dc:subject><dc:subject>Archaeology</dc:subject><dc:date>2012</dc:date><dc:contributor>Mika, Katherine</dc:contributor><dc:type>Photograph</dc:type></oai_dc:dc></metadata></record><record><header><identifier>doi:10.7910/DVN/005SCF</identifier><datestamp>2021-12-02T07:58:58Z</datestamp><setSpec>IQSS</setSpec><setSpec>geospatial_metadata_harvard</setSpec></header><metadata><oai_dc:dc xmlns:xsi="http://www.w3.org/2001/XMLSchema-instance" xmlns:oai_dc="http://www.openarchives.org/OAI/2.0/oai_dc/" xmlns:dc="http://purl.org/dc/elements/1.1/" xsi:schemaLocation="http://www.openarchives.org/OAI/2.0/oai_dc/ http://www.openarchives.org/OAI/2.0/oai_dc.xsd"><dc:title>A15_28596.jpg</dc:title><dc:identifier>https://doi.org/10.7910/DVN/005SCF</dc:identifier><dc:creator>Master, Daniel M.</dc:creator><dc:creator>Stager, Lawrence E.</dc:creator><dc:publisher>Harvard Dataverse</dc:publisher><dc:description>Link to OCHRE database: &lt;a href = 'http://pi.lib.uchicago.edu/1001/org/ochre/41685994-303e-4e46-b053-f969e7a03c9f'>http://pi.lib.uchicago.edu/1001/org/ochre/41685994-303e-4e46-b053-f969e7a03c9f</dc:description><dc:subject>Arts and Humanities</dc:subject><dc:subject>Archaeology</dc:subject><dc:language>English</dc:language><dc:date>2015</dc:date><dc:contributor>Mika, Katherine</dc:contributor><dc:type>Photograph</dc:type></oai_dc:dc></metadata></record><record><header><identifier>doi:10.7910/DVN/006UPU</identifier><datestamp>2022-03-25T06:07:37Z</datestamp><setSpec>IQSS</setSpec><setSpec>geospatial_metadata_harvard</setSpec></header><metadata><oai_dc:dc xmlns:xsi="http://www.w3.org/2001/XMLSchema-instance" xmlns:oai_dc="http://www.openarchives.org/OAI/2.0/oai_dc/" xmlns:dc="http://purl.org/dc/elements/1.1/" xsi:schemaLocation="http://www.openarchives.org/OAI/2.0/oai_dc/ http://www.openarchives.org/OAI/2.0/oai_dc.xsd"><dc:title>A14_26456.jpg</dc:title><dc:identifier>https://doi.org/10.7910/DVN/006UPU</dc:identifier><dc:creator>Master, Daniel M.</dc:creator><dc:creator>Stager, Lawrence E.</dc:creator><dc:publisher>Harvard Dataverse</dc:publisher><dc:description>Link to OCHRE database: &lt;a href = 'http://pi.lib.uchicago.edu/1001/org/ochre/46973234-e618-477a-b98d-6ec3187c0227'>http://pi.lib.uchicago.edu/1001/org/ochre/46973234-e618-477a-b98d-6ec3187c0227</dc:description><dc:subject>Arts and Humanities</dc:subject><dc:subject>Archaeology</dc:subject><dc:language>English</dc:language><dc:date>2014</dc:date><dc:contributor>Mika, Katherine</dc:contributor><dc:type>Photograph</dc:type></oai_dc:dc></metadata></record><record><header><identifier>doi:10.7910/DVN/007GT</identifier><datestamp>2022-10-21T06:04:42Z</datestamp><setSpec>IQSS</setSpec></header><metadata><oai_dc:dc xmlns:xsi="http://www.w3.org/2001/XMLSchema-instance" xmlns:oai_dc="http://www.openarchives.org/OAI/2.0/oai_dc/" xmlns:dc="http://purl.org/dc/elements/1.1/" xsi:schemaLocation="http://www.openarchives.org/OAI/2.0/oai_dc/ http://www.openarchives.org/OAI/2.0/oai_dc.xsd"><dc:title>House Unpassed Legislation 1848, Docket 2157, SC1/series 230, Petition of L.B. Bliss</dc:title><dc:identifier>https://doi.org/10.7910/DVN/007GT</dc:identifier><dc:creator>Digital Archive of Massachusetts Anti-Slavery and Anti-Segregation Petitions, Massachusetts Archives, Boston MA</dc:creator><dc:publisher>Harvard Dataverse</dc:publisher><dc:description>&lt;p>Petition subject: Abolition of capital punishment &lt;/p> &lt;p>Original: &lt;a href="http://nrs.harvard.edu/urn-3:FHCL:13481431">http://nrs.harvard.edu/urn-3:FHCL:13481431&lt;/a> &lt;/p> &lt;p>Date of creation: 1848-01 &lt;/p> &lt;p>Petition location: Wilbraham &lt;/p> &lt;p>Legislator, committee, or address that the petition was sent to: John Smith, Wilbraham; committee on that subject &lt;/p> &lt;p>Selected signatures:&lt;ol>&lt;li>L.B. Bliss&lt;/li>&lt;li>John Carpenter&lt;/li>&lt;li>Elisha Burr&lt;/li>&lt;/ol> &lt;/p> &lt;p>Actions taken on dates: 1848-03-27 &lt;/p> &lt;p>Legislative action: Received in the House on March 27, 1848 and referred to the committee on that subject &lt;/p> &lt;p>Total signatures: 37 &lt;/p> &lt;p>Legislative action summary: Received, referred &lt;/p> &lt;p>Legal voter signatures (males not identified as non-legal): 37 &lt;/p> &lt;p>Female only signatures: No &lt;/p> &lt;p>Identifications of signatories: citizens, ["others"] &lt;/p> &lt;p>Prayer format was &lt;a href="http://en.wikipedia.org/wiki/Printing">printed&lt;/a> vs. &lt;a href="http://en.wikipedia.org/wiki/Manuscript">manuscript&lt;/a>: Manuscript &lt;/p> &lt;p>Additional non-petition or unrelated documents available at archive: no additional documents &lt;/p> &lt;p>Location of the petition at the Massachusetts Archives of the Commonwealth: House Unpassed 1848, Docket 2157 &lt;/p> &lt;p>Acknowledgements: Supported by the National Endowment for the Humanities (PW-5105612), Massachusetts Archives of the Commonwealth, Radcliffe Institute for Advanced Study at Harvard University, Center for American Political Studies at Harvard University, Institutional Development Initiative at Harvard University, and Harvard University Library.&lt;/p></dc:description><dc:subject>Social Sciences</dc:subject><dc:subject>received</dc:subject><dc:subject>referred</dc:subject><dc:subject>Manuscript</dc:subject><dc:subject>John Smith, Wilbraham; committee on that subject</dc:subject><dc:subject>Elisha Burr</dc:subject><dc:subject>John Carpenter</dc:subject><dc:subject>L.B. Bliss</dc:subject><dc:subject>citizens</dc:subject><dc:subject>others</dc:subject><dc:subject>No</dc:subject><dc:subject>37</dc:subject><dc:subject>37</dc:subject><dc:date>1848-01</dc:date></oai_dc:dc></metadata></record><record><header><identifier>doi:10.7910/DVN/00BSW9</identifier><datestamp>2023-08-15T06:43:55Z</datestamp><setSpec>IQSS</setSpec></header><metadata><oai_dc:dc xmlns:xsi="http://www.w3.org/2001/XMLSchema-instance" xmlns:oai_dc="http://www.openarchives.org/OAI/2.0/oai_dc/" xmlns:dc="http://purl.org/dc/elements/1.1/" xsi:schemaLocation="http://www.openarchives.org/OAI/2.0/oai_dc/ http://www.openarchives.org/OAI/2.0/oai_dc.xsd"><dc:title>Healthcare associated infection-Tunisia</dc:title><dc:identifier>https://doi.org/10.7910/DVN/00BSW9</dc:identifier><dc:creator>Nouira, Mariem</dc:creator><dc:publisher>Harvard Dataverse</dc:publisher><dc:description>This dataset is related to a point prevalence survey about healthcare associated infections among adult patients hospitalized at a tertiary hospital in Tunisia</dc:description><dc:subject>Medicine, Health and Life Sciences</dc:subject><dc:date>2023-07-10</dc:date><dc:contributor>Nouira, Mariem</dc:contributor></oai_dc:dc></metadata></record><record><header><identifier>doi:10.7910/DVN/00CIUU</identifier><datestamp>2020-08-22T07:34:00Z</datestamp><setSpec>IQSS</setSpec></header><metadata><oai_dc:dc xmlns:xsi="http://www.w3.org/2001/XMLSchema-instance" xmlns:oai_dc="http://www.openarchives.org/OAI/2.0/oai_dc/" xmlns:dc="http://purl.org/dc/elements/1.1/" xsi:schemaLocation="http://www.openarchives.org/OAI/2.0/oai_dc/ http://www.openarchives.org/OAI/2.0/oai_dc.xsd"><dc:title>Replication Data for: Who’s At The Party? Group Sentiments, Knowledge, and Partisan Identity</dc:title><dc:identifier>https://doi.org/10.7910/DVN/00CIUU</dc:identifier><dc:creator>Wronski, Julie</dc:creator><dc:creator>Kane, John V.</dc:creator><dc:creator>Mason, Lilliana</dc:creator><dc:publisher>Harvard Dataverse</dc:publisher><dc:description>STATA data and .do files appropriate for replicating the main text and supplemental appendices (SA) analyses of "Who’s At The Party?&#xd;
Group Sentiments, Knowledge, and Partisan Identity" by Kane, Mason, and Wronski (2020)</dc:description><dc:subject>Social Sciences</dc:subject><dc:subject>data collected in 2016, 2018, and 2019</dc:subject><dc:contributor>Wronski, Julie</dc:contributor></oai_dc:dc></metadata></record><record><header><identifier>doi:10.7910/DVN/00IIWB</identifier><datestamp>2022-04-01T06:08:33Z</datestamp><setSpec>IQSS</setSpec><setSpec>geospatial_metadata_harvard</setSpec></header><metadata><oai_dc:dc xmlns:xsi="http://www.w3.org/2001/XMLSchema-instance" xmlns:oai_dc="http://www.openarchives.org/OAI/2.0/oai_dc/" xmlns:dc="http://purl.org/dc/elements/1.1/" xsi:schemaLocation="http://www.openarchives.org/OAI/2.0/oai_dc/ http://www.openarchives.org/OAI/2.0/oai_dc.xsd"><dc:title>A13_24064.jpg</dc:title><dc:identifier>https://doi.org/10.7910/DVN/00IIWB</dc:identifier><dc:creator>Master, Daniel M.</dc:creator><dc:creator>Stager, Lawrence E.</dc:creator><dc:publisher>Harvard Dataverse</dc:publisher><dc:description>Link to OCHRE database: &lt;a href = 'http://pi.lib.uchicago.edu/1001/org/ochre/520a1900-7ed5-4b1b-b367-f17a56f4680d'>http://pi.lib.uchicago.edu/1001/org/ochre/520a1900-7ed5-4b1b-b367-f17a56f4680d</dc:description><dc:subject>Arts and Humanities</dc:subject><dc:subject>Archaeology</dc:subject><dc:language>English</dc:language><dc:date>2013</dc:date><dc:contributor>Mika, Katherine</dc:contributor><dc:type>Photograph</dc:type></oai_dc:dc></metadata></record><resumptionToken completeListSize="104394" cursor="0">b2Zmc2V0OjoxMHxwcmVmaXg6Om9haV9kYw==</resumptionToken></ListRecords></OAI-PMH>